…
    ## Warning in inner_join(., returns, by = c("Name.Alias", "Time")): Detected an unexpected many-to-many relationship between `x` and `y`.
    ## ℹ Row 141 of `x` matches multiple rows in `y`.
    ## ℹ Row 281 of `y` matches multiple rows in `x`.
    ## ℹ If a many-to-many relationship is expected, set `relationship =
    ##   "many-to-many"` to silence this warning.

``` r
# Counting the number of such "stasis tube" instances
stasis_count <- nrow(death_stasis_check)

# Displaying the result
death_stasis_check
```

    ## # A tibble: 67 × 34
    ##    URL.x      Name.Alias Appearances.x Current..x Gender.x Probationary.Introl.x
    ##    <chr>      <chr>              <int> <chr>      <chr>    <chr>                
    ##  1 http://ma… "Janet va…          1165 YES        FEMALE   ""                   
    ##  2 http://ma… "Anthony …          3068 YES        MALE     ""                   
    ##  3 http://ma… "Robert B…          2089 YES        MALE     ""                   
    ##  4 http://ma… "Thor Odi…          2402 YES        MALE     ""                   
    ##  5 http://ma… "Steven R…          3458 YES        MALE     ""                   
    ##  6 http://ma… "Clinton …          1456 YES        MALE     ""                   
    ##  7 http://ma… "Clinton …          1456 YES        MALE     ""                   
    ##  8 http://ma… "Pietro M…           769 YES        MALE     ""                   
    ##  9 http://ma… "Wanda Ma…          1214 YES        FEMALE   ""                   
    ## 10 http://ma… "Jacques …           115 NO         MALE     ""                   
    ## # ℹ 57 more rows
    ## # ℹ 28 more variables: Full.Reserve.Avengers.Intro.x <chr>, Year.x <int>,
    ## #   Years.since.joining.x <int>, Honorary.x <chr>, Return1 <chr>,
    ## #   Return2 <chr>, Return3 <chr>, Return4 <chr>, Return5 <chr>, Notes.x <chr>,
    ## #   Time <dbl>, Death <chr>, URL.y <chr>, Appearances.y <int>,
    ## #   Current..y <chr>, Gender.y <chr>, Probationary.Introl.y <chr>,
    ## #   Full.Reserve.Avengers.Intro.y <chr>, Year.y <int>, …
…
